%YAML 1.1
%TAG !u! tag:unity3d.com,2011:
--- !u!1045 &1
EditorBuildSettings:
  m_ObjectHideFlags: 0
  serializedVersion: 2
  m_Scenes:
  - enabled: 1
    path: Assets/Scenes/Main.unity
    guid: ddf9eecb0f3996b47b30c96de62882b5
  - enabled: 1
    path: Assets/Scenes/Home.unity
    guid: 9f5f4bbef0395ba40a59b3557598347f
  m_configObjects: {}
